sromrev=15
subvid=0x106b
vendid=0x14e4
devid=0x4464
boardtype=0x07bf
boardrev=0x1750
boardnum=1
boardflags=0x10001801
boardflags2=0x0
boardflags3=0x48002085
boardflags4=0x140
slice/1/boardflags=0x10001001
slice/1/boardflags2=0x0
slice/1/boardflags3=0x48002080
slice/1/boardflags4=0x140
aa2g=0x7
aa5g=0x7
agbg0=133
agbg1=133
agbg2=133
slice/1/agbg0=133
aga0=71
aga1=71
aga2=71
slice/1/aga0=71
txchain=0x7
rxchain=0x7		
slice/1/txchain=0x1
slice/1/rxchain=0x1
antswitch=0
tssiposslope2g=1
slice/1/tssiposslope2g=1
epagain2g=0
slice/1/epagain2g=0
pdgain2g=0
tworangetssi2g=0
slice/1/tworangetssi2g=0
papdcap2g=0
femctrl=0
tssiposslope5g=1
slice/1/tssiposslope5g=1
epagain5g=0
slice/1/epagain5g=0
pdgain5g=0			
slice/1/pdgain5g=0			
tworangetssi5g=0	
papdcap5g=0			
gainctrlsph=0
tempthresh=110
tempoffset=255
rawtempsense=0x1ff
rhc_tempthresh=115
measpower=0
measpower1=0
measpower2=0
xtalfreq=37400
phycal_tempdelta=40
slice/1/phycal_tempdelta=40
temps_period=10
temps_hysteresis=5
slice/1/pdoffset40m2g=0
slice/1/pdoffset40ma0=0x11100
slice/1/pdoffset80ma0=0x22222
slice/1/pdoffsetcck=0x6
pdoffset40ma0=0x000ff
pdoffset40ma1=0x100f0
pdoffset40ma2=0x000ff
pdoffset80ma0=0x0f0ff
pdoffset80ma1=0x000ff
pdoffset80ma2=0x0f0ff
pdoffset40m2g=0
pdoffsetcck=0x1000
pdoffset20in40m5gb0=0
pdoffset20in40m5gb1=0
pdoffset20in40m5gb2=0
pdoffset20in40m5gb3=0
pdoffset20in40m5gb4=0
pdoffset40in80m5gb0=0
pdoffset40in80m5gb1=0
pdoffset40in80m5gb2=0
pdoffset40in80m5gb3=0
pdoffset40in80m5gb4=0
pdoffset20in80m5gb0=0
pdoffset20in80m5gb1=0
pdoffset20in80m5gb2=0
pdoffset20in80m5gb3=0
pdoffset20in80m5gb4=0
subband5gver=0x5
mcs8poexp=0
mcs9poexp=0
mcs10poexp=0
mcs11poexp=0
cckbw202gpo=0
cckbw20ul2gpo=0
mcsbw202gpo=1967259648
mcsbw402gpo=1967259648
dot11agofdmhrbw202gpo=8192
ofdmlrbw202gpo=0
mcsbw205glpo=2252476416
mcsbw405glpo=2252476416
mcsbw805glpo=2252476416
mcsbw1605glpo=0
mcsbw205gmpo=2252476416
mcsbw405gmpo=2252476416
mcsbw805gmpo=2252476416
mcsbw1605gmpo=0
mcsbw205ghpo=2252476416
mcsbw405ghpo=2252476416
mcsbw805ghpo=2252476416
mcsbw1605ghpo=0
mcsbw205gx1po=2252476416
mcsbw405gx1po=2252476416
mcsbw805gx1po=2252476416
mcsbw1605gx1po=0
mcsbw205gx2po=2252476416
mcsbw405gx2po=2252476416
mcsbw805gx2po=2252476416
mcsbw1605gx2po=0
mcslr5glpo=0
mcslr5gmpo=0
mcslr5ghpo=0
mcslr5gx1po=0
mcslr5gx2po=0
sb20in40hrpo=0
sb20in40lrpo=0
sb20in40hrlrpox=0
dot11agduphrpo=0
dot11agduplrpo=52416
dot11agduphrlrpox=0
sb40and80hr5glpo=0
sb40and80hr5gmpo=0
sb40and80hr5ghpo=0
sb40and80hr5gx1po=0
sb40and80hr5gx2po=0
sb20in80and160hr5glpo=0
sb20in80and160hr5gmpo=0
sb20in80and160hr5ghpo=0
sb20in80and160hr5gx1po=0
sb20in80and160hr5gx2po=0
sb40and80lr5glpo=0
sb40and80lr5gmpo=0
sb40and80lr5ghpo=0
sb40and80lr5gx1po=0
sb40and80lr5gx2po=0
sb20in80and160lr5glpo=0
sb20in80and160lr5gmpo=0
sb20in80and160lr5ghpo=0
sb20in80and160lr5gx1po=0
sb20in80and160lr5gx2po=0
slice/1/mcs8poexp=0
slice/1/mcs9poexp=0
slice/1/mcs10poexp=0
slice/1/mcs11poexp=0
slice/1/cckbw202gpo=0
slice/1/cckbw20ul2gpo=0
slice/1/mcsbw202gpo=1967259648
slice/1/mcsbw402gpo=1967259648
slice/1/dot11agofdmhrbw202gpo=8192
slice/1/ofdmlrbw202gpo=0
slice/1/mcsbw205glpo=2789347328
slice/1/mcsbw405glpo=2789347328
slice/1/mcsbw805glpo=2789347328
slice/1/mcsbw1605glpo=0
slice/1/mcsbw205gmpo=2789347328
slice/1/mcsbw405gmpo=2789347328
slice/1/mcsbw805gmpo=2789347328
slice/1/mcsbw1605gmpo=0
slice/1/mcsbw205ghpo=2789347328
slice/1/mcsbw405ghpo=2789347328
slice/1/mcsbw805ghpo=2789347328
slice/1/mcsbw1605ghpo=0
slice/1/mcsbw205gx1po=2789347328
slice/1/mcsbw405gx1po=2789347328
slice/1/mcsbw805gx1po=2789347328
slice/1/mcsbw1605gx1po=0
slice/1/mcsbw205gx2po=2789347328
slice/1/mcsbw405gx2po=2789347328
slice/1/mcsbw805gx2po=2789347328
slice/1/mcsbw1605gx2po=0
slice/1/mcslr5glpo=0
slice/1/mcslr5gmpo=0
slice/1/mcslr5ghpo=0
slice/1/mcslr5gx1po=0
slice/1/mcslr5gx2po=0
slice/1/sb20in40hrpo=0
slice/1/sb20in40lrpo=0
slice/1/sb20in40hrlrpox=0
slice/1/dot11agduphrpo=0
slice/1/dot11agduplrpo=52416
slice/1/dot11agduphrlrpox=0
slice/1/sb40and80hr5glpo=0
slice/1/sb40and80hr5gmpo=0
slice/1/sb40and80hr5ghpo=0
slice/1/sb40and80hr5gx1po=0
slice/1/sb40and80hr5gx2po=0
slice/1/sb20in80and160hr5glpo=0
slice/1/sb20in80and160hr5gmpo=0
slice/1/sb20in80and160hr5ghpo=0
slice/1/sb20in80and160hr5gx1po=0
slice/1/sb20in80and160hr5gx2po=0
slice/1/sb40and80lr5glpo=0
slice/1/sb40and80lr5gmpo=0
slice/1/sb40and80lr5ghpo=0
slice/1/sb40and80lr5gx1po=0
slice/1/sb40and80lr5gx2po=0
slice/1/sb20in80and160lr5glpo=0
slice/1/sb20in80and160lr5gmpo=0
slice/1/sb20in80and160lr5ghpo=0
slice/1/sb20in80and160lr5gx1po=0
slice/1/sb20in80and160lr5gx2po=0
sar2g=18
sar5g=15
noiselvl2ga0=31
noiselvl2ga1=31
noiselvl2ga2=31
slice/1/noiselvl2ga0=31
noiselvl5ga0=31,31,31,31
noiselvl5ga1=31,31,31,31
noiselvl5ga2=31,31,31,31
slice/1/noiselvl5ga0=31,31,31,31
rxgainerr2ga0=63
rxgainerr2ga1=31
rxgainerr2ga2=31
slice/1/rxgainerr2ga0=63
rxgainerr5ga0=63,63,63,63
rxgainerr5ga1=31,31,31,31
rxgainerr5ga2=31,31,31,31
slice/1/rxgainerr5ga0=63,63,63,63
extpagain2g=1
extpagain5g=1
rxgains5gelnagaina0=4
rxgains5gelnagaina1=4
rxgains5gelnagaina2=2
slice/1/rxgains5gelnagaina0=2
rxgains5gmelnagaina0=4
rxgains5gmelnagaina1=4
rxgains5gmelnagaina2=2
slice/1/rxgains5gmelnagaina0=2
rxgains5ghelnagaina0=4
rxgains5ghelnagaina1=4
rxgains5ghelnagaina2=2
slice/1/rxgains5ghelnagaina0=2
rxgains5gtrisoa0=6
rxgains5gtrisoa1=6
rxgains5gtrisoa2=6
slice/1/rxgains5gtrisoa0=6
rxgains5gmtrisoa0=6
rxgains5gmtrisoa1=6
rxgains5gmtrisoa2=6
slice/1/rxgains5gmtrisoa0=6
rxgains5ghtrisoa0=6
rxgains5ghtrisoa1=6
rxgains5ghtrisoa2=6
slice/1/rxgains5ghtrisoa0=6
rxgains5gtrelnabypa0=1
rxgains5gtrelnabypa1=1
rxgains5gtrelnabypa2=1
slice/1/rxgains5gtrelnabypa0=1
rxgains5gmtrelnabypa0=1
rxgains5gmtrelnabypa1=1
rxgains5gmtrelnabypa2=1
slice/1/rxgains5gmtrelnabypa0=1
rxgains5ghtrelnabypa0=1
rxgains5ghtrelnabypa1=1
rxgains5ghtrelnabypa2=1
slice/1/rxgains5ghtrelnabypa0=1
rxgains2gelnagaina0=3
rxgains2gelnagaina1=2
rxgains2gelnagaina2=2
slice/1/rxgains2gelnagaina0=1
rxgains2gtrisoa0=6
rxgains2gtrisoa1=6
rxgains2gtrisoa2=6
slice/1/rxgains2gtrisoa0=6
rxgains2gtrelnabypa0=1
rxgains2gtrelnabypa1=1
rxgains2gtrelnabypa2=1
slice/1/rxgains2gtrelnabypa0=1
maxp2ga0=80
maxp5gb0a0=74
maxp5gb1a0=74
maxp5gb2a0=74
maxp5gb3a0=74
maxp5gb4a0=74
maxp2ga1=80
maxp5gb0a1=74
maxp5gb1a1=74
maxp5gb2a1=74
maxp5gb3a1=74
maxp5gb4a1=74
maxp2ga2=80
maxp5gb0a2=74
maxp5gb1a2=74
maxp5gb2a2=74
maxp5gb3a2=74
maxp5gb4a2=74
slice/1/maxp2ga0=80
slice/1/maxp5gb0a0=74
slice/1/maxp5gb1a0=74
slice/1/maxp5gb2a0=74
slice/1/maxp5gb3a0=74
slice/1/maxp5gb4a0=74
slice/1/pa2ga0=6794,-9756,-702,5597
slice/1/pa5ga0=6423,-2156,-5947,4698,6173,0,-6838,4193,6210,-143,-6764,4832,6163,-52,-6691,4989,6135,-815,-5965,8745
slice/1/pa5g40a0=6205,-1090,-6183,5493,6201,-1056,-6068,6960,6160,0,-6378,7398,6122,0,-6321,7536,6106,-650,-5843,8828
slice/1/pa5g80a0=6334,-1730,-5736,5978,6289,-1093,-5997,6026,6139,-66,-6374,6265,6206,-991,-5788,7724,6179,-1379,-5521,8078
pa2ga0=7114,-10840,-438,5467
pa5ga0=6176,-1568,-5942,5037,6180,-1873,-5624,6186,6144,-1919,-5550,6663,6156,-1823,-5626,7205,6069,-1696,-5612,7937
pa5g40a0=5992,-1494,-5593,6834,6119,-2662,-4953,8674,6132,-2617,-4931,9121,6051,-1828,-5338,8489,6041,-2218,-4988,10459
pa5g80a0=6064,-3052,-4706,7638,6068,-3097,-4675,7561,6100,-3283,-4538,8367,6122,-3040,-4697,9927,6024,-2613,-4840,9804
pa2ga1=7103,-10837,-432,5220
pa5ga1=6136,0,-6839,2576,6125,0,-6687,3665,6124,-443,-6526,2733,6163,-832,-6279,5060,6061,0,-6673,5178
pa5g40a1=5984,0,-6550,3772,6108,-971,-5990,5325,6174,-1780,-5479,7268,6048,-572,-6155,5528,6099,-1235,-5750,8576
pa5g80a1=6036,-1442,-5691,4505,6104,-1968,-5369,5441,6170,-2798,-4891,6946,6170,-2358,-5178,8748,6127,-1955,-5475,7204
pa2ga2=7153,-10553,-632,5451
pa5ga2=6278,-2835,-5467,4107,6305,-2915,-5424,4322,6088,-1700,-5947,3613,6108,-2417,-5333,6068,6001,-2301,-5278,6582
pa5g40a2=6150,-3146,-4985,6641,6069,-2188,-5496,5448,6031,-2064,-5364,7643,6037,-2175,-5294,6789,6008,-3181,-4505,10114
pa5g80a2=6165,-4337,-4197,7667,6087,-3202,-4823,5837,5962,-1972,-5504,4502,6044,-3067,-4707,7908,6044,-3801,-4130,10803
slice/1/AvVmid_c0=7,65,7,55,7,55,7,55,7,55
AvVmid_c0=2,115,3,90,3,90,3,90,3,90
AvVmid_c1=2,115,3,90,3,90,3,90,3,90
AvVmid_c2=2,115,3,90,3,90,3,90,3,90
rpcal2g=65535
rpcal5gb0=65535
rpcal5gb1=65535
rpcal5gb2=65535
rpcal5gb3=65535
swctrlmap4_cfg=0x13
swctrlmap4_TX2g_fem3to0=0x3333
swctrlmap4_TX2g_fem7to4=0x4200
swctrlmap4_TX2g_fem9to8=0x00
swctrlmap4_RX2g_fem3to0=0x4444
swctrlmap4_RX2g_fem7to4=0x4200
swctrlmap4_RX2g_fem9to8=0x00
swctrlmap4_RXByp2g_fem3to0=0x6666
swctrlmap4_RXByp2g_fem7to4=0x4200
swctrlmap4_RXByp2g_fem9to8=0x00
swctrlmap4_misc2g_fem3to0=0x0000
swctrlmap4_misc2g_fem7to4=0x0000
swctrlmap4_misc2g_fem9to8=0x00
swctrlmap4_TX5g_fem3to0=0x8888
swctrlmap4_TX5g_fem7to4=0x1911
swctrlmap4_TX5g_fem9to8=0x40
swctrlmap4_RX5g_fem3to0=0x0000
swctrlmap4_RX5g_fem7to4=0x1911
swctrlmap4_RX5g_fem9to8=0x40
swctrlmap4_RXByp5g_fem3to0=0x0000
swctrlmap4_RXByp5g_fem7to4=0x0800
swctrlmap4_RXByp5g_fem9to8=0x40
swctrlmap4_misc5g_fem3to0=0x0000
swctrlmap4_misc5g_fem7to4=0x0000
swctrlmap4_misc5g_fem9to8=0x00
master_slice_mask_5g=0x198
master_slice_mask_2g=0x67
core2slicemap=0x8
dot11b_opts=0x3aa85
ed_thresh2g=-63
ed_thresh5g=-66
eu_edthresh2g=-63
eu_edthresh5g=-66
slice/1/ed_thresh2g=-57
slice/1/ed_thresh5g=-60
slice/1/eu_edthresh2g=-57
slice/1/eu_edthresh5g=-60
btc_mode=1
btc_full_hybrid=0
btc_params82=0x400
btc_2gchain=5
dynsdb_txchain=3
muxenab=1
seci_uart_gpios=0x08090a0b
fuart_pup_rx_cts=1
slice/1/bphyscale=43
slice/1/rssi_cal_rev=1
slice/1/rxgaincal_rssical=1
slice/1/gain_cal_temp=255
slice/1/rssi_qdB_en=1
slice/1/temp_comp_tr_loss=1
slice/1/rssi_cal_freq_grp_2g=0x89,0x22,0xa2,0x03,0x3b,0x3c,0x44
slice/1/rxgain_tempcoeff2g_sub_elnaoff=4,7,7,9,9
slice/1/rxgain_tempcoeff2g_sub=12,9,10,9,7
slice/1/rxgain_tempcoeff5gl=9
slice/1/rxgain_tempcoeff5gml=7
slice/1/rxgain_tempcoeff5gmu=5
slice/1/rxgain_tempcoeff5gh=1
slice/1/rxgain_tempcoeff5gl_elnaoff=0
slice/1/rxgain_tempcoeff5gml_elnaoff=7
slice/1/rxgain_tempcoeff5gmu_elnaoff=12
slice/1/rxgain_tempcoeff5gh_elnaoff=7
rssi_cal_rev=1
rxgaincal_rssical=1
gain_cal_temp=255
rssi_qdB_en=1
temp_comp_tr_loss=1
rssi_cal_freq_grp_2g=0x89,0x22,0xa2,0x03,0x3b,0x3c,0x44
rxgain_tempcoeff2g_sub=73,63,69,76,55,66,61,63,76,60,72,66,64,86,66
rxgain_tempcoeff2g_sub_elnaoff=32,76,67,40,63,38,63,67,48,63,38,63,76,48,54
rxgain_tempcoeff5gl=50,55,54
rxgain_tempcoeff5gml=49,44,53
rxgain_tempcoeff5gmu=48,44,53
rxgain_tempcoeff5gh=50,45,60
rxgain_tempcoeff5gl_elnaoff=46,41,35
rxgain_tempcoeff5gml_elnaoff=35,36,48
rxgain_tempcoeff5gmu_elnaoff=33,32,40
rxgain_tempcoeff5gh_elnaoff=32,35,44
txfdiqcalenable=1
ldo3p3_voltage=4
initbaseidx5govrval=20
initbaseidx2govrval=20
slice/1/initbaseidx5govrval=20
slice/1/initbaseidx2govrval=20
useoobgaint=1
pad_scaling=128
olpc_idx_in_use=1
disable_olpc=0
slice/1/olpc_idx_in_use=1
slice/1/disable_olpc=0
olpc_thresh=0
slice/1/olpc_thresh=0
ofdmfilttype_2gbe=1
slice/1/ofdmfilttype_2gbe=1
rssicorrnorm_c0=0,0
rssicorrnorm_c1=0,0
rssicorrnorm_c2=0,0
rssicorrnorm5g_c0=-3,0,0,-3,0,0,-3,0,0,-3,0,0
rssicorrnorm5g_c1=-3,0,0,-3,0,0,-3,0,0,-3,0,0
rssicorrnorm5g_c2=-3,0,0,-3,0,0,-3,0,0,-3,0,0
slice/1/rssicorrnorm_c0=0,0
slice/1/rssicorrnorm5g_c0=3,4,5,3,4,5,3,4,5,3,4,5
olpc_tempslope2g=80,80,80
olpc_tempslope5g=180,180,180
slice/1/olpc_tempslope2g=120
slice/1/olpc_tempslope5g=180
ds_hc_enable=0
paprdis=0
paprrmcsgamma2g=500,550,550,-1,-1,-1,-1,-1,-1,-1
paprrmcsgain2g=128,128,128,0,0,0,0,0,0,0
paprrmcsgamma5g20=-1,-1,-1,-1,-1,-1,-1,-1,-1,-1
paprrmcsgain5g20=0,0,0,0,0,0,0,0,0,0
paprrmcsgamma5g40=-1,-1,-1,-1,-1,-1,-1,-1,-1,-1
paprrmcsgain5g40=0,0,0,0,0,0,0,0,0,0
paprrmcsgamma5g80=-1,-1,-1,-1,-1,-1,-1,-1,-1,-1
paprrmcsgain5g80=0,0,0,0,0,0,0,0,0,0
slice/1/paprdis=1
slice/1/paprrmcsgamma2g=500,550,550,600,700,-1,-1,-1,-1,-1
slice/1/paprrmcsgain2g=128,128,128,128,128,0,0,0,0,0
slice/1/paprrmcsgamma5g20=-1,-1,-1,-1,-1,-1,-1,-1,-1,-1
slice/1/paprrmcsgain5g20=0,0,0,0,0,0,0,0,0,0
slice/1/paprrmcsgamma5g40=-1,-1,-1,-1,-1,-1,-1,-1,-1,-1
slice/1/paprrmcsgain5g40=0,0,0,0,0,0,0,0,0,0
slice/1/paprrmcsgamma5g80=-1,-1,-1,-1,-1,-1,-1,-1,-1,-1
slice/1/paprrmcsgain5g80=0,0,0,0,0,0,0,0,0,0
onbody_gpio_inpt=12
bphyscale=29,25
slice/1/bbmult_scaling=287
sar_fusion_enable=1
tempsense_pwrbackoff_threshold=55
pwrbackoff_2g=4,4,4
pwrbackoff_5gl=4,4,4
pwrbackoff_5gm=4,4,4
pwrbackoff_5gh=4,4,4
slice/1/tempsense_pwrbackoff_threshold=55
slice/1/pwrbackoff_2g=4,4,4
slice/1/pwrbackoff_5gl=4,4,4
slice/1/pwrbackoff_5gm=4,4,4
slice/1/pwrbackoff_5gh=4,4,4
tempsense_throttle_txchain=1
throttle_tx_duty_cycle=50
slice/1/throttle_tx_duty_cycle=50
cck_tx_coremask=1
cck_txdiv_mode=1
